% This file was created by matplotlib2tikz v0.6.14.
\begin{tikzpicture}[scale=0.8]

\definecolor{color0}{rgb}{0.12156862745098,0.466666666666667,0.705882352941177}

\begin{axis}[
xlabel={$P_0$},
ylabel={$\langle P_1 \rangle$},
y label style={},%rotate=-90
xmin=-1, xmax=1,
ymin=-1, ymax=1,
tick align=outside,
tick pos=left,
x grid style={white!69.019607843137251!black},
y grid style={white!69.019607843137251!black}
]
\addplot [very thin, white!50.196078431372548!black, forget plot]
table {%
-1 -1
1 1
};
\addplot [semithick, color0, forget plot]
table {%
-1 -0.999909204262595
-0.95 -0.999850307544979
-0.9 -0.999753210848027
-0.85 -0.99959314604389
-0.8 -0.999329299739067
-0.75 -0.998894442726153
-0.7 -0.998177897611199
-0.65 -0.996997635486526
-0.6 -0.99505475368673
-0.55 -0.991859724568208
-0.5 -0.98661429815143
-0.45 -0.978026114738814
-0.4 -0.964027580075817
-0.35 -0.941375538497287
-0.3 -0.905148253644866
-0.25 -0.848283639957513
-0.2 -0.761594155955765
-0.15 -0.635148952387287
-0.1 -0.46211715726001
-0.0499999999999999 -0.244918662403709
0 0
0.05 0.244918662403709
0.1 0.46211715726001
0.15 0.635148952387288
0.2 0.761594155955765
0.25 0.848283639957513
0.3 0.905148253644867
0.35 0.941375538497288
0.4 0.964027580075817
0.45 0.978026114738814
0.5 0.986614298151431
0.55 0.991859724568208
0.6 0.995054753686731
0.65 0.996997635486526
0.7 0.998177897611199
0.75 0.998894442726153
0.8 0.999329299739067
0.85 0.99959314604389
0.9 0.999753210848027
0.95 0.999850307544979
1 0.999909204262595
};
\addplot [semithick, white!50.196078431372548!black, dashed, forget plot]
table {%
0.2 -1
0.2 0.761594155955765
-1 0.761594155955765
};
\end{axis}

\end{tikzpicture}
